{
    "admin_features": {
        "SS": {
            "admin0": {
                "dataset": {
                    "id": "2c6b5b5a-97ea-4bd2-9f4b-25919463f62a"
                },
                "resource": {
                    "id": "2df5359c-f5bb-483f-9d08-85c61779f0e0"
                }
            },
            "admin1": {
                "dataset": {
                    "id": "2c6b5b5a-97ea-4bd2-9f4b-25919463f62a"
                },
                "resource": {
                    "id": "a0dd9e26-4106-44cf-9b39-67a9a2f212e1"
                }
            },
            "admin2": {
                "dataset": {
                    "id": "2c6b5b5a-97ea-4bd2-9f4b-25919463f62a"
                },
                "resource": {
                    "id": "c323f572-3f97-4246-b8a7-8a92eaa5636b"
                }
            },
            "admin3": {
                "dataset": {
                    "id": "2c6b5b5a-97ea-4bd2-9f4b-25919463f62a"
                },
                "resource": {
                    "id": "0cf2b13b-3c9f-4f4e-8074-93edc01ab1bd"
                }
            },
            "admin4": {
                "dataset": {
                    "id": "2c6b5b5a-97ea-4bd2-9f4b-25919463f62a"
                },
                "resource": {
                    "id": "d1252013-a99f-47f1-a13d-84e0be180524"
                }
            }
        },
        "ET": {
            "admin0": {
                "dataset": {
                    "id": "c3d86261-d32b-44eb-b8d1-b34ea30a8d07"
                },
                "resource": {
                    "id": "bcf3a171-85e1-488b-b332-6c2bc8558157"
                }
            },
            "admin1": {
                "dataset": {
                    "id": "c3d86261-d32b-44eb-b8d1-b34ea30a8d07"
                },
                "resource": {
                    "id": "c7ff9362-9d2e-4993-9f56-4ec35aa0530b"
                }
            },
            "admin2": {
                "dataset": {
                    "id": "c3d86261-d32b-44eb-b8d1-b34ea30a8d07"
                },
                "resource": {
                    "id": "41a8c77a-16af-40b0-8aac-c89fb759ac21"
                }
            },
            "admin3": {
                "dataset": {
                    "id": "c3d86261-d32b-44eb-b8d1-b34ea30a8d07"
                },
                "resource": {
                    "id": "db916f78-ec37-417b-88a2-9f42d832490e"
                }
            }
        }
    }
}
