samp_cluster,geo_region,geo_adm1,geo_latitude,geo_longitude
1,Tigray,ET01,14.3538160324,37.89087677
2,Tigray,ET01,14.2885894775,38.2102508545
3,Tigray,ET01,13.844083786,38.4803237915
4,Tigray,ET01,14.0862760544,37.9831848145
5,Tigray,ET01,13.6425170898,38.1191825867
6,Tigray,ET01,14.2834682465,38.5730171204
7,Tigray,ET01,14.3007955551,39.0594902039
8,Tigray,ET01,14.1583566666,39.2258491516
9,Tigray,ET01,14.0859775543,38.9755058289
10,Tigray,ET01,13.9859466553,38.6492996216
11,Tigray,ET01,13.7813262939,38.9865112305
12,Tigray,ET01,13.6918230057,39.2019004822
13,Tigray,ET01,14.4559612274,39.4790840149
14,Tigray,ET01,14.2527065277,39.6508903503
15,Tigray,ET01,14.3192176819,39.2715988159
16,Tigray,ET01,13.9843702316,39.5331306458
17,Tigray,ET01,13.8014268875,39.6182518005
18,Tigray,ET01,13.8953876495,39.7873001099
19,Tigray,ET01,13.234957695,39.1634407043
20,Tigray,ET01,13.2820243835,39.4405212402
21,Tigray,ET01,13.0168514252,39.3671646118
22,Tigray,ET01,12.7826271057,39.3068885803
23,Tigray,ET01,12.6231336594,39.6516838074
24,Tigray,ET01,12.6209659576,39.4244537354
25,Tigray,ET01,14.1819915771,36.4799919128
26,Tigray,ET01,14.0872354507,37.5015258789
27,Tigray,ET01,13.6709928513,37.4064254761
28,Tigray,ET01,13.7315702438,37.3672523499
29,Tigray,ET01,13.4774389267,37.1213378906
30,Tigray,ET01,13.5160579681,37.6273155212
31,Afar,ET02,11.68953228,41.3481216431
32,Afar,ET02,11.5311098099,41.414188385
33,Afar,ET02,11.527803421,41.5207099915
34,Afar,ET02,11.5223293304,41.5692977905
35,Afar,ET02,11.6284542084,40.8825645447
36,Afar,ET02,11.2140035629,40.2055931091
37,Afar,ET02,11.6741943359,40.0955314636
38,Afar,ET02,9.2492465973,40.0598564148
39,Afar,ET02,9.517870903,40.1647911072
40,Afar,ET02,9.6789731979,39.9135932922
41,Amhara,ET03,13.3722276688,37.7898750305
42,Amhara,ET03,13.2058115005,37.7876548767
43,Amhara,ET03,12.8052511215,37.4183807373
44,Amhara,ET03,12.3384962082,37.6750221252
45,Amhara,ET03,12.8017158508,36.9303131104
46,Amhara,ET03,12.3910703659,35.9335899353
47,Amhara,ET03,12.3059883118,37.8380126953
48,Amhara,ET03,12.3562965393,38.4524421692
49,Amhara,ET03,12.049823761,37.8003234863
50,Amhara,ET03,11.8176441193,38.1602249146
51,Amhara,ET03,11.6454401016,38.4188575745
52,Amhara,ET03,11.2385730743,38.311340332
53,Amhara,ET03,11.6890726089,37.6074562073
54,Amhara,ET03,12.2543907166,38.6525764465
55,Amhara,ET03,11.9918041229,39.7800216675
56,Amhara,ET03,11.9910478592,39.3570747375
57,Amhara,ET03,11.8139982224,39.1404075623
58,Amhara,ET03,11.6549186707,39.0357551575
59,Amhara,ET03,11.9048461914,39.44947052
60,Amhara,ET03,11.6692066193,39.6566047668
61,Amhara,ET03,11.9625253677,39.0981559753
62,Amhara,ET03,11.3563671112,39.4349250793
63,Amhara,ET03,11.4159603119,39.8485717773
64,Amhara,ET03,11.0874300003,39.7843894958
65,Amhara,ET03,11.0268831253,38.9229354858
66,Amhara,ET03,10.5685625076,39.2356643677
67,Amhara,ET03,10.5792188644,38.6062545776
68,Amhara,ET03,10.1771507263,38.9727783203
69,Amhara,ET03,10.0245113373,39.2131652832
70,Amhara,ET03,10.5281534195,39.8131065369
71,Amhara,ET03,9.8904886246,39.4845314026
72,Amhara,ET03,9.5540819168,39.5793380737
73,Amhara,ET03,9.6125707626,39.7830429077
74,Amhara,ET03,10.1255683899,39.3173065186
75,Amhara,ET03,10.9070463181,38.0365180969
76,Amhara,ET03,10.9551944733,38.2846946716
77,Amhara,ET03,10.4180717468,38.1697120667
78,Amhara,ET03,10.4216175079,37.57654953
79,Amhara,ET03,9.9919061661,37.6925544739
80,Amhara,ET03,10.5794315338,37.798500061
81,Amhara,ET03,11.651471138,37.1032829285
82,Amhara,ET03,11.3744754791,37.4523239136
83,Amhara,ET03,11.3962745667,37.0426177979
84,Amhara,ET03,10.7927761078,37.1445426941
85,Amhara,ET03,10.5892772675,37.4615974426
86,Amhara,ET03,10.5773763657,37.0449676514
87,Amhara,ET03,11.2828207016,36.9596862793
88,Amhara,ET03,12.75806427,38.9938697815
89,Amhara,ET03,12.5144433975,38.8249855042
90,Amhara,ET03,12.3989124298,39.0897483826
91,Amhara,ET03,11.1913404465,36.9496955872
92,Amhara,ET03,10.9346265793,37.0039710999
93,Amhara,ET03,10.8293371201,37.0644226074
94,Amhara,ET03,10.9370698929,36.6547546387
95,Amhara,ET03,11.063662529,37.0703773499
96,Amhara,ET03,10.7206897736,39.8860282898
97,Amhara,ET03,11.113617897,40.0172119141
98,Amhara,ET03,10.5883522034,39.907497406
99,Amhara,ET03,11.00390625,39.9387893677
100,Amhara,ET03,10.9878387451,39.9234085083
101,Amhara,ET03,10.9436292648,40.0054359436
102,Oromia,ET04,9.837059021,34.9150161743
103,Oromia,ET04,9.3581027985,35.5751647949
104,Oromia,ET04,9.0770301819,35.6156349182
105,Oromia,ET04,8.7688655853,35.5671768188
106,Oromia,ET04,9.8470869064,36.3422966003
107,Oromia,ET04,9.0308427811,36.403793335
108,Oromia,ET04,8.6536779404,36.6077461243
109,Oromia,ET04,8.6616153717,35.6426963806
110,Oromia,ET04,8.1893062592,36.4699859619
111,Oromia,ET04,8.1697978973,35.6406326294
112,Oromia,ET04,8.6430273056,37.0632133484
113,Oromia,ET04,7.6691236496,36.9255371094
114,Oromia,ET04,7.5478305817,37.0818252563
115,Oromia,ET04,7.4755673409,36.4429740906
116,Oromia,ET04,8.8411540985,37.9135780334
117,Oromia,ET04,8.466463089,37.436920166
118,Oromia,ET04,9.3723545074,38.3223609924
119,Oromia,ET04,9.8912343979,38.3744316101
120,Oromia,ET04,9.7797908783,38.6582450867
121,Oromia,ET04,9.0039739609,39.0027427673
122,Oromia,ET04,8.7381477356,39.8405303955
123,Oromia,ET04,8.7271785736,39.1876983643
124,Oromia,ET04,8.1133260727,38.775302887
125,Oromia,ET04,8.6834917068,38.8054351807
126,Oromia,ET04,8.0884227753,39.0349235535
127,Oromia,ET04,7.5886106491,39.794593811
128,Oromia,ET04,7.4284305573,38.9573860168
129,Oromia,ET04,8.8987646103,40.2744636536
130,Oromia,ET04,8.9390010834,40.4714508057
131,Oromia,ET04,8.6523084641,40.6178512573
132,Oromia,ET04,9.0093698502,40.7218742371
133,Oromia,ET04,9.1831855774,42.0206871033
134,Oromia,ET04,9.3740606308,41.5884590149
135,Oromia,ET04,9.0626382828,41.6874694824
136,Oromia,ET04,7.1643295288,39.8203697205
137,Oromia,ET04,7.2589879036,40.6146240234
138,Oromia,ET04,6.4505033493,39.8802719116
139,Oromia,ET04,6.9835977554,40.3522758484
140,Oromia,ET04,5.595682621,38.2936210632
141,Oromia,ET04,4.2353410721,38.3859138489
142,Oromia,ET04,3.9829311371,38.4913673401
143,Oromia,ET04,8.7204284668,37.9114570618
144,Oromia,ET04,8.9708909988,38.6245574951
145,Oromia,ET04,8.636100769,38.1519355774
146,Oromia,ET04,6.3758935928,38.7269439697
147,Oromia,ET04,5.5257062912,38.7620658875
148,Oromia,ET04,6.0243577957,38.3413619995
149,Oromia,ET04,7.349187851,38.8049354553
150,Oromia,ET04,7.0034899712,39.1624450684
151,Oromia,ET04,7.2685036659,38.6020927429
152,Oromia,ET04,9.0153007507,35.0465393066
153,Oromia,ET04,8.6149206161,34.6514358521
154,Oromia,ET04,9.759139061,37.0448150635
155,Oromia,ET04,9.7900743484,37.5059432983
156,Oromia,ET04,9.844080925,37.1271362305
157,Somalie,ET05,10.4981527328,42.5949440002
158,Somalie,ET05,9.9126501083,42.4725494385
159,Somalie,ET05,9.6638145447,41.7895507813
160,Somalie,ET05,9.5515260696,41.358379364
161,Somalie,ET05,9.5655260086,41.5231781006
162,Somalie,ET05,9.2397575378,42.4419441223
163,Somalie,ET05,9.4005393982,42.8585243225
164,Somalie,ET05,9.301856041,42.5964927673
165,Somalie,ET05,9.3234081268,43.2784118652
166,Somalie,ET05,9.0960731506,43.2041435242
167,Somalie,ET05,9.0381584167,43.2537269592
168,Somalie,ET05,9.0674800873,43.5342674255
169,Somalie,ET05,8.8429756165,43.8706588745
170,Somalie,ET05,5.2229981422,41.0432052612
171,Somalie,ET05,5.2135024071,40.0351524353
172,Somalie,ET05,4.2818441391,41.8750762939
173,Somalie,ET05,3.8642430305,39.1013641357
174,Somalie,ET05,3.4557006359,39.5159950256
175,Somalie,ET05,3.5499372482,39.1842346191
176,Somalie,ET05,4.8790545464,39.1953773499
177,Benshagul Gumuz,ET06,11.3323287964,36.2720184326
178,Benshagul Gumuz,ET06,11.1156082153,36.3763427734
179,Benshagul Gumuz,ET06,10.5023756027,36.0048065186
180,Benshagul Gumuz,ET06,10.4822092056,34.7861785889
181,Benshagul Gumuz,ET06,10.081237793,34.6831893921
182,Benshagul Gumuz,ET06,9.744228363,34.7872962952
183,Benshagul Gumuz,ET06,10.1813678741,35.2815055847
184,Benshagul Gumuz,ET06,9.3913736343,36.2194366455
185,Benshagul Gumuz,ET06,9.6203327179,34.5342636108
186,Benshagul Gumuz,ET06,9.4765119553,34.4209022522
187,SNNP,ET07,8.1794967651,37.9272193909
188,SNNP,ET07,8.1686315536,38.6464538574
189,SNNP,ET07,7.8199114799,37.8285980225
190,SNNP,ET07,8.1183586121,37.7115821838
191,SNNP,ET07,8.1332788467,38.2086715698
192,SNNP,ET07,7.7053847313,37.6505393982
193,SNNP,ET07,7.1743001938,37.9492683411
194,SNNP,ET07,7.3816027641,37.6033973694
195,SNNP,ET07,7.5132603645,37.6461372375
196,SNNP,ET07,7.3767633438,37.8935661316
197,SNNP,ET07,7.2837452888,37.7571487427
198,SNNP,ET07,7.4428076744,37.8659095764
199,SNNP,ET07,6.9115681648,38.4817085266
200,SNNP,ET07,6.8031020164,38.5126342773
201,SNNP,ET07,6.4496278763,38.319683075
202,SNNP,ET07,6.3989834785,38.8768997192
203,SNNP,ET07,6.9308485985,38.5958976746
204,SNNP,ET07,6.6558065414,38.3245735168
205,SNNP,ET07,6.2776117325,38.3115196228
206,SNNP,ET07,6.1387834549,38.2843360901
207,SNNP,ET07,5.9830121994,38.1616668701
208,SNNP,ET07,6.4012379646,38.3446006775
209,SNNP,ET07,5.945253849,38.3225097656
210,SNNP,ET07,6.9499258995,37.8864936829
211,SNNP,ET07,6.9021010399,37.7348747253
212,SNNP,ET07,6.783018589,37.5509796143
213,SNNP,ET07,6.7068586349,37.4095458984
214,SNNP,ET07,6.2550458908,36.1974105835
215,SNNP,ET07,5.8363394737,36.6070289612
216,SNNP,ET07,6.13630867,36.6759757996
217,SNNP,ET07,7.8272709846,35.3924942017
218,SNNP,ET07,7.2755684853,35.376121521
219,SNNP,ET07,7.190571785,35.422832489
220,SNNP,ET07,7.6721172333,35.8400115967
221,SNNP,ET07,7.3131818771,36.5951919556
222,SNNP,ET07,6.9858942032,36.4255218506
223,SNNP,ET07,7.448677063,35.8680763245
224,SNNP,ET07,6.6309499741,36.7852020264
225,SNNP,ET07,6.6169962883,37.48462677
226,SNNP,ET07,5.9881706238,37.438785553
227,SNNP,ET07,6.2338552475,37.345615387
228,SNNP,ET07,5.9498910904,37.1552314758
229,SNNP,ET07,7.1454749107,35.4612007141
230,SNNP,ET07,6.9141135216,35.6303215027
231,SNNP,ET07,6.8069214821,35.8015975952
232,SNNP,ET07,6.8049297333,35.864616394
233,SNNP,ET07,6.2600679398,35.2645530701
234,SNNP,ET07,7.9769868851,37.4779090881
235,SNNP,ET07,7.8891253471,37.5456581116
236,SNNP,ET07,7.7316961288,37.4985847473
237,SNNP,ET07,5.8518490791,37.8832206726
238,SNNP,ET07,5.7470970154,37.8508872986
239,SNNP,ET07,5.6031551361,37.603061676
240,SNNP,ET07,5.5541667938,37.8416519165
241,SNNP,ET07,5.4953451157,37.5518417358
242,SNNP,ET07,5.2994771004,37.4826164246
243,SNNP,ET07,5.2529549599,37.4271774292
244,SNNP,ET07,5.6465587616,37.3818893433
245,SNNP,ET07,5.6392841339,37.3823165894
246,SNNP,ET07,7.1463785172,36.8971405029
247,SNNP,ET07,7.0992431641,37.1282577515
248,SNNP,ET07,6.9430212975,37.2950172424
249,SNNP,ET07,7.0360770226,37.3092803955
250,SNNP,ET07,6.3639149666,36.5892181396
251,SNNP,ET07,6.3330101967,36.6032676697
252,SNNP,ET07,6.2656350136,36.6109390259
253,SNNP,ET07,7.1597495079,36.8360404968
254,SNNP,ET07,7.0951747894,36.6553001404
255,SNNP,ET07,7.9850158691,38.1539344788
256,SNNP,ET07,8.0757894516,38.4395980835
257,SNNP,ET07,7.7912101746,38.3295097351
258,SNNP,ET07,7.6581602097,38.0946311951
259,SNNP,ET07,7.4056835175,38.081073761
260,SNNP,ET07,7.2767381668,38.115737915
261,Gambelia,ET12,8.4000711441,33.9385070801
262,Gambelia,ET12,8.0067119598,34.5566329956
263,Gambelia,ET12,7.830136776,34.5080528259
264,Gambelia,ET12,8.2757587433,33.980758667
265,Gambelia,ET12,8.3920049667,33.4683570862
266,Gambelia,ET12,7.258105278,35.3135604858
267,Gambelia,ET12,7.2260465622,35.2944717407
268,Gambelia,ET12,7.2744264603,35.2563362122
269,Gambelia,ET12,7.3024048805,35.1983642578
270,Gambelia,ET12,8.1972703934,34.2016601563
271,Harari,ET13,9.3602952957,42.0920677185
272,Harari,ET13,9.3380994797,42.0999526978
273,Harari,ET13,9.3710775375,42.1031913757
274,Harari,ET13,9.3150730133,42.1446533203
275,Harari,ET13,9.3372631073,42.200428009
276,Harari,ET13,9.332575798,42.2485046387
277,Harari,ET13,9.3102970123,42.1842193604
278,Harari,ET13,9.2730560303,42.1322174072
279,Harari,ET13,9.2644586563,42.1477432251
280,Harari,ET13,9.2463064194,42.2173957825
281,Diredwa,ET15,9.5519256592,41.7853660583
282,Diredwa,ET15,9.4730319977,41.7186508179
283,Diredwa,ET15,9.513217926,41.8161354065
284,Diredwa,ET15,9.5689821243,41.8673477173
285,Diredwa,ET15,9.5268554688,41.9408798218
286,Diredwa,ET15,9.5509166718,42.0823669434
287,Diredwa,ET15,9.5678901672,41.9822654724
288,Diredwa,ET15,9.6029806137,42.080329895
289,Diredwa,ET15,9.6309518814,42.1461029053
290,Diredwa,ET15,9.7467718124,42.3089675903
291,Tigray,ET01,14.1097612381,38.4738349915
292,Tigray,ET01,13.8713388443,38.6366920471
293,Tigray,ET01,13.8426046371,39.7196426392
294,Tigray,ET01,13.2843561172,39.5298309326
295,Afar,ET02,11.8858766556,41.5738143921
296,Afar,ET02,9.3562994003,40.2364692688
297,Amhara,ET03,12.5563926697,37.3118591309
298,Amhara,ET03,12.9196891785,37.0329704285
299,Amhara,ET03,11.7869472504,37.590801239
300,Amhara,ET03,12.0062360764,39.6076469421
301,Amhara,ET03,10.7561979294,38.7696723938
302,Amhara,ET03,10.1249265671,39.6713104248
303,Amhara,ET03,10.4376029968,38.3184394836
304,Amhara,ET03,10.9686098099,37.178478241
305,Amhara,ET03,12.4280738831,38.7053184509
306,Amhara,ET03,11.5649166107,36.4628448486
307,Amhara,ET03,10.5738925934,39.9354286194
308,Oromia,ET04,9.3888101578,35.6143913269
309,Oromia,ET04,8.7430448532,36.4844474792
310,Oromia,ET04,8.0938272476,36.4574623108
311,Oromia,ET04,7.8800587654,36.098323822
312,Oromia,ET04,9.0560703278,38.5868110657
313,Oromia,ET04,10.0165863037,38.2492256165
314,Oromia,ET04,7.7757396698,39.8661155701
315,Oromia,ET04,8.5719032288,40.3175163269
316,Oromia,ET04,9.150850296,41.8440551758
317,Oromia,ET04,7.4366750717,41.0005645752
318,Oromia,ET04,8.8216629028,38.3469276428
319,Somalie,ET05,10.4624099731,42.2434959412
320,Somalie,ET05,9.2207956314,42.495223999
321,Somalie,ET05,4.7676887512,39.2697486877
322,Benshagul Gumuz,ET06,9.7344303131,34.728553772
323,SNNP,ET07,8.2042989731,37.7931365967
324,SNNP,ET07,7.6926288605,37.7336158752
325,SNNP,ET07,6.9249501228,38.3559684753
326,SNNP,ET07,6.8887209892,37.9522514343
327,SNNP,ET07,4.807097435,36.0818405151
328,SNNP,ET07,7.1109089851,36.4669761658
329,SNNP,ET07,6.2910966873,37.4818458557
330,SNNP,ET07,6.9490289688,35.7720222473
331,SNNP,ET07,7.0587043762,37.1757698059
332,SNNP,ET07,7.7934989929,38.2505607605
333,Gambelia,ET12,7.6469130516,34.2562828064
334,1,ET01,14.1005954742,38.2661399841
335,1,ET01,14.2762498856,39.1567192078
336,1,ET01,14.1562795639,38.8997650146
337,1,ET01,14.1873884201,39.5544319153
338,1,ET01,13.807311058,39.5987930298
339,1,ET01,12.7845582962,39.549243927
340,1,ET01,14.1819915771,36.4799919128
341,1,ET01,13.4825811386,39.4822540283
342,1,ET01,13.5067653656,39.4798469543
343,1,ET01,13.4906253815,39.4698257446
344,1,ET01,13.4959611893,39.4733200073
345,1,ET01,13.5148639679,39.4517059326
346,1,ET01,13.5188484192,39.4787750244
347,1,ET01,13.495923996,39.455039978
348,1,ET01,13.4725074768,39.5370864868
349,2,ET02,11.5627565384,41.437335968
350,3,ET03,12.7575330734,37.618183136
351,3,ET03,12.6169137955,37.4684028625
352,3,ET03,12.6083650589,37.4679527283
353,3,ET03,12.5522098541,37.4175796509
354,3,ET03,11.4068193436,38.2392921448
355,3,ET03,11.8421964645,39.6046066284
356,3,ET03,11.1106758118,39.6278991699
357,3,ET03,11.1436014175,39.6325836182
358,3,ET03,10.3526411057,39.9574737549
359,3,ET03,10.8636522293,38.2487831116
360,3,ET03,10.563533783,37.489780426
361,3,ET03,10.8585205078,36.8876495361
362,3,ET03,11.5896072388,37.3720321655
363,3,ET03,11.5834274292,37.4126548767
364,3,ET03,11.5763196945,37.3667259216
365,4,ET04,9.1640024185,35.8283500671
366,4,ET04,8.4545087814,36.3484992981
367,4,ET04,9.0661554337,38.4935493469
368,4,ET04,8.1492805481,38.830619812
369,4,ET04,7.929251194,38.7168655396
370,4,ET04,7.978246212,39.1321182251
371,4,ET04,8.8911142349,40.7670936584
372,4,ET04,7.1011567116,40.0109672546
373,4,ET04,8.9320335388,38.6507034302
374,4,ET04,8.5517253876,39.267364502
375,4,ET04,8.5178823471,39.2833633423
376,4,ET04,8.5403051376,39.2492408752
377,4,ET04,8.5339231491,39.2682723999
378,4,ET04,8.5413227081,39.2718887329
379,4,ET04,7.9697356224,36.6697807312
380,4,ET04,7.677239418,36.8176574707
381,4,ET04,7.6685395241,36.841583252
382,4,ET04,7.0984926224,39.1906356812
383,4,ET04,7.2238869667,38.6028671265
384,4,ET04,7.170938015,38.6018867493
385,5,ET05,9.3685884476,42.7944755554
386,5,ET05,9.1131010056,43.1741752625
387,5,ET05,9.1508436203,43.348815918
388,7,ET07,8.1199235916,38.3685646057
389,7,ET07,7.5439071655,37.8629341125
390,7,ET07,6.5932898521,38.4223937988
391,7,ET07,7.0638809204,37.7193031311
392,7,ET07,6.8515434265,37.7801780701
393,7,ET07,6.059150219,37.5452194214
394,7,ET07,6.9854159355,35.5733184814
395,7,ET07,7.0628223419,38.4942016602
396,7,ET07,7.0504536629,38.4814720154
397,7,ET07,7.0649852753,38.4802055359
398,7,ET07,7.0559163094,38.4859199524
399,7,ET07,7.0433492661,38.4725189209
400,7,ET07,7.0530529022,38.4811134338
401,7,ET07,7.030418396,38.4696502686
402,7,ET07,7.0215010643,38.4874763489
403,12,ET12,8.2469644547,34.5963973999
404,13,ET13,9.3380994797,42.0999526978
405,13,ET13,8.0734624863,36.4978713989
406,13,ET13,9.3377761841,42.0807304382
407,14,ET14,8.8826808929,38.7810020447
408,14,ET14,8.957485199,38.7621269226
409,14,ET14,8.9640579224,38.7219009399
410,14,ET14,8.9580307007,38.748085022
411,14,ET14,9.0475673676,38.7182426453
412,14,ET14,8.9808530807,38.6959838867
413,14,ET14,8.3911371231,35.9322395325
414,14,ET14,8.4492893219,36.1827774048
415,14,ET14,9.0718126297,38.7299308777
416,14,ET14,9.0201158524,38.733379364
417,14,ET14,8.9897508621,38.7736549377
418,14,ET14,9.0187091827,38.7899971008
419,14,ET14,9.0529346466,38.735118866
420,14,ET14,9.0138349533,38.7413330078
421,14,ET14,9.0375089645,38.7378120422
422,14,ET14,9.0610713959,38.7917785645
423,14,ET14,9.0235748291,38.7842483521
424,14,ET14,9.0341796875,38.8425674438
425,14,ET14,9.0152568817,38.8137512207
426,14,ET14,8.9542608261,38.7769012451
427,15,ET15,9.6037006378,41.8458976746
428,15,ET15,9.5966892242,41.8551597595
429,15,ET15,9.5951251984,41.8583145142
430,15,ET15,9.5808486938,41.8521194458
431,15,ET15,9.5921096802,41.874382019
432,15,ET15,9.593120575,41.8806419373
433,15,ET15,9.6039991379,41.8653869629
